<?xml version="1.0" encoding="utf-8"?>
<svg viewBox="-215.19 -86.608 1000 402.473" xmlns="http://www.w3.org/2000/svg">
  <path d="M 629.608 9.019 L 629.608 -52.584 L 458.189 -52.584 L 429.998 153.219 L 402.102 -52.583 L 340.285 -52.583 L 347.21 2.332 C 340.07 -11.736 314.761 -52.583 259.064 -52.583 C 258.697 -52.607 197.163 -52.583 197.163 -52.583 L 196.926 247.391 L 151.869 -52.583 L 70.91 -52.63 L 24.298 258.184 L 24.322 -52.585 L -53.161 -52.585 L -81.094 122 L -108.302 -52.583 L -185.81 -52.583 L -185.81 285.323 L -124.774 285.323 L -124.774 122.453 L -97.01 285.319 L -64.561 285.319 L -37.187 122.453 L -37.187 285.319 L 80.48 285.319 L 87.62 233.324 L 134.994 233.324 L 142.11 285.319 L 257.631 285.39 L 257.725 285.39 L 257.725 285.319 L 257.797 285.319 L 257.869 285.319 L 257.869 175.634 L 272.031 173.571 L 301.35 285.39 L 301.422 285.39 L 361.032 285.39 L 361.102 285.39 L 361.078 285.319 L 361.184 285.319 L 361.256 285.319 L 322.781 154.262 C 342.279 139.84 364.294 103.215 358.435 68.178 L 358.435 68.155 C 358.505 68.629 394.751 285.535 394.751 285.535 L 465.816 285.319 L 514.375 -20.965 L 514.375 285.32 L 629.611 285.32 L 629.611 224.547 L 574.911 224.547 L 574.911 147.051 L 629.611 147.051 L 629.611 85.353 L 574.911 85.353 L 574.911 9.019 L 629.608 9.019 Z M 94.81 179.74 L 111.568 35.279 L 128.968 179.74 L 94.81 179.74 Z M 272.229 113.036 C 267.532 115.314 262.634 116.453 257.866 116.453 L 257.866 7.762 C 257.949 7.762 258.045 7.74 258.163 7.74 C 262.943 7.716 298.582 9.186 298.582 61.514 C 298.582 88.887 286.461 106.134 272.229 113.036 M 752.589 224.5 L 752.589 285.272 L 640.175 285.272 L 640.175 -52.63 L 700.701 -52.63 L 700.701 224.5 L 752.589 224.5 Z" style="fill: rgb(236, 29, 35);"/>
</svg>